^E:\HW\HW_13\HW_13\HELPERS.CPP|E:\HW\HW_13\HW_13\HW_13.CPP
E:\HW\HW_13\HW_13\DEBUG\VC142.PDB
E:\HW\HW_13\HW_13\DEBUG\VC142.IDB
E:\HW\HW_13\HW_13\DEBUG\HELPERS.OBJ
E:\HW\HW_13\HW_13\DEBUG\HW_13.OBJ
^E:\HW\HW_13\HW_13\HW_13.CPP
E:\HW\HW_13\HW_13\DEBUG\VC142.PDB
^E:\HW\HW_13\HW_13\HELPERS.CPP
E:\HW\HW_13\HW_13\DEBUG\VC142.PDB
